\relax 
\catcode `:\active 
\catcode `;\active 
\catcode `!\active 
\catcode `?\active 
\select@language{french}
\@writefile{toc}{\select@language{french}}
\@writefile{lof}{\select@language{french}}
\@writefile{lot}{\select@language{french}}
\@writefile{toc}{\contentsline {section}{\numberline {1}Connexion \IeC {\`a} l'application AlgoBreizh}{1}}
\@writefile{lof}{\contentsline {figure}{\numberline {1}{\ignorespaces Ecran de connexion}}{1}}
\@writefile{toc}{\contentsline {paragraph}{L'administrateur pourra se connecter \IeC {\`a} la base de donn\IeC {\'e}es avec l'identifiant et le mot de passe qui lui ont \IeC {\'e}t\IeC {\'e} attribu\IeC {\'e}s.}{1}}
\@writefile{toc}{\contentsline {section}{\numberline {2}Ajout d'un utilisateur}{1}}
\@writefile{toc}{\contentsline {paragraph}{Pour ajouter un utilisateur l'administrateur devra cliquer sur le lien \"ajouter un utilisateur\".}{1}}
\@writefile{toc}{\contentsline {section}{\numberline {3}Supprimer un utilisateur}{1}}
\@writefile{lof}{\contentsline {figure}{\numberline {2}{\ignorespaces Ecran d'ajout d'un utilisateur}}{2}}
\@writefile{lof}{\contentsline {figure}{\numberline {3}{\ignorespaces Ecran de suppression d'un utilisateur}}{2}}
